5 Assignment 5: Analyzing repeated measures experiments – Mappeeksamen IDR4000
…
## Exploratory plot of strength data 

str <- strengthvolume %>%
  filter(include == "incl") %>%
  mutate(time = factor(time, levels = c("pre", "session1", 
                                        "week2", "week5", 
                                        "week9", "post"))) %>%
  print()

# A tibble: 2,856 × 8
   participant sex   include time     sets     leg   exercise  load
   <chr>       <chr> <chr>   <fct>    <chr>    <chr> <chr>    <dbl>
 1 FP13        male  incl    pre      single   R     legpress   115
 2 FP13        male  incl    pre      multiple L     legpress   115
 3 FP13        male  incl    pre      single   R     legext      55
 4 FP13        male  incl    pre      multiple L     legext      55
 5 FP13        male  incl    session1 single   R     legpress   125
 6 FP13        male  incl    session1 multiple L     legpress   125
 7 FP13        male  incl    session1 single   R     legext      55
 8 FP13        male  incl    session1 multiple L     legext      55
 9 FP13        male  incl    week2    single   R     legpress   185
10 FP13        male  incl    week2    multiple L     legpress   175
# ℹ 2,846 more rows
…
  print()

Warning: There were 7 warnings in `summarise()`.
The first warning was:
ℹ In argument: `load = max(load, na.rm = TRUE)`.
ℹ In group 62: `participant = "FP6"`, `sex = "female"`, `time = "post"`, `sets
  = "multiple"`, `exercise = "legpress"`, `leg = "L"`.
Caused by warning in `max()`:
! no non-missing arguments to max; returning -Inf
ℹ Run `dplyr::last_dplyr_warnings()` to see the 6 remaining warnings.

# A tibble: 816 × 7
   participant sex    time  sets     exercise leg    load
   <chr>       <chr>  <chr> <chr>    <chr>    <chr> <dbl>
 1 FP13        male   pre   single   legpress R     125  
 2 FP13        male   pre   multiple legpress L     125  
 3 FP13        male   pre   single   legext   R      55  
 4 FP13        male   pre   multiple legext   L      55  
 5 FP13        male   post  single   legpress R     230  
 6 FP13        male   post  multiple legpress L     235  
 7 FP13        male   post  single   legext   R      97.5
 8 FP13        male   post  multiple legext   L     100  
 9 FP16        female pre   single   legpress R      95  
10 FP16        female pre   multiple legpress L      85  
# ℹ 806 more rows
…
To get and overview of the variables in each data set use ?strengthvolume and ?dxadata. In the dxadata the variables of interest are organized in a more convenient way using the code below:

library(tidyverse)

dxadata %>%
  select(participant:include, lean.left_leg, lean.right_leg) %>%
  pivot_longer(names_to = "leg", 
               values_to = "lean.mass", 
               cols = lean.left_leg:lean.right_leg) %>%
  mutate(leg = if_else(leg == "lean.left_leg", "L", "R"), 
         sets = if_else(multiple == leg, "multiple", "single")) %>%
  select(participant, time, sex, include, sets, leg, lean.mass) %>%
  print()

# A tibble: 160 × 7
   participant time  sex    include sets     leg   lean.mass
   <chr>       <chr> <chr>  <chr>   <chr>    <chr>     <dbl>
 1 FP28        pre   female incl    multiple L          7059
 2 FP28        pre   female incl    single   R          7104
 3 FP40        pre   female incl    single   L          7190
 4 FP40        pre   female incl    multiple R          7506
 5 FP21        pre   male   incl    single   L         10281
 6 FP21        pre   male   incl    multiple R         10200
 7 FP34        pre   female incl    single   L          6014
 8 FP34        pre   female incl    multiple R          6009
 9 FP23        pre   male   incl    single   L          8242
10 FP23        pre   male   incl    multiple R          8685
# ℹ 150 more rows
…
